{
    "name": "drupal/${name}",
    "description": "$description",
    "license": "GPL-2.0+",
    "require": {},
    "autoload": {
        "psr-4": {
          "Drupal\\\\${name}\\": "src/"
        }
    },
    "scripts": {
        "pre-install-cmd": "@pm-policy",
        "pre-update-cmd": "@pm-policy",
        "pm-policy": [
            "echo 'Package management is disabled'",
            "false"
        ]
    }
}
